{"help": "https://api.nationalgrideso.com/api/3/action/help_show?name=datastore_search", "success": "True", "result": {"include_total": "True", "resource_id": "db6c038f-98af-4570-ab60-24d71ebd0ae5", "fields": [{"type": "int", "id": "_id"}, {"info": {"comment": "N/A", "description": "The date for which the forecast is intended for", "title": "Forecast Date", "type": "datetime", "example": "2022-01-05T00:00:00", "unit": "N/A"}, "type": "timestamp", "id": "DATE_GMT"}, {"info": {"comment": "N/A", "description": "The time for which the forecast is intended for", "title": "Time if Forecast", "type": "string", "example": "10:30", "unit": "N/A"}, "type": "text", "id": "TIME_GMT"}, {"info": {"comment": "N/A", "description": "The period from 00:00 hours to 24:00 hours on each day;", "title": "Settlement Date", "type": "datetime", "example": "2022-01-05T00:00:00", "unit": "N/A"}, "type": "timestamp", "id": "SETTLEMENT_DATE"}, {"info": {"comment": "N/A", "description": "Period of 30 minutes beginning on the hour or the half-hour", "title": "Settlement Period", "type": "integer", "example": "23", "unit": "Number"}, "type": "int4", "id": "SETTLEMENT_PERIOD"}, {"info": {"comment": "N/A", "description": "This is an estimate forecast of the GB wind generation from wind farms which do not have Transmission System metering installed. These wind farms are embedded in the distribution network and invisible to Nation Grid ESO. Their effect is to suppress the electricity demand during periods of high wind. The True output of these generators is not known so an estimate is provided based on Nation Grid ESOs best model.0", "title": "Embedded wind Forecast ", "type": "integer", "example": "2361", "unit": "MW"}, "type": "int4", "id": "EMBEDDED_WIND_FORECAST"}, {"info": {"comment": "N/A", "description": "This is Nation Grid ESOs best view of the installed embedded wind capacity in GB. This is based on publically available information compiled from a variety of sources and is not the definitive view. It is consistent with the generation estimate provided. ", "title": "Embedded Wind Capacity", "type": "integer", "example": "6559", "unit": "MW"}, "type": "int4", "id": "EMBEDDED_WIND_CAPACITY"}, {"info": {"comment": "N/A", "description": "This is an estimate forecast of the GB solar generation from solar farms which do not have Transmission System metering installed. These solar farms are embedded in the distribution network and invisible to Nation Grid ESO. Their effect is to suppress the electricity demand during periods of high solar periods. The True output of these generators is not known so an estimate is provided based on Nation Grid  best model.", "title": "Embedded Solar Forecast", "type": "integer", "example": "7406", "unit": "MW"}, "type": "int4", "id": "EMBEDDED_SOLAR_FORECAST"}, {"info": {"comment": "N/A", "description": "Estimated Embedded Solar Capacity. This is National Grid  best view of the installed embedded solar capacity in GB. This is based on publically available information compiled from a variety of sources and is not the definitive view. It is consistent with the generation estimate provided.", "title": "Embedded Solar Capacity", "type": "integer", "example": "13080", "unit": "MW"}, "type": "int4", "id": "EMBEDDED_SOLAR_CAPACITY"}], "records_format": "objects", "records": [{"_id": 1, "DATE_GMT": "2023-12-22T00:00:00", "TIME_GMT": "15:30", "SETTLEMENT_DATE": "2023-12-22T00:00:00", "SETTLEMENT_PERIOD": 31, "EMBEDDED_WIND_FORECAST": 4573, "EMBEDDED_WIND_CAPACITY": 6488, "EMBEDDED_SOLAR_FORECAST": 359, "EMBEDDED_SOLAR_CAPACITY": 15905}, {"_id": 2, "DATE_GMT": "2023-12-22T00:00:00", "TIME_GMT": "16:00", "SETTLEMENT_DATE": "2023-12-22T00:00:00", "SETTLEMENT_PERIOD": 32, "EMBEDDED_WIND_FORECAST": 4462, "EMBEDDED_WIND_CAPACITY": 6488, "EMBEDDED_SOLAR_FORECAST": 230, "EMBEDDED_SOLAR_CAPACITY": 15905}, {"_id": 3, "DATE_GMT": "2023-12-22T00:00:00", "TIME_GMT": "16:30", "SETTLEMENT_DATE": "2023-12-22T00:00:00", "SETTLEMENT_PERIOD": 33, "EMBEDDED_WIND_FORECAST": 4374, "EMBEDDED_WIND_CAPACITY": 6488, "EMBEDDED_SOLAR_FORECAST": 96, "EMBEDDED_SOLAR_CAPACITY": 15905}, {"_id": 4, "DATE_GMT": "2023-12-22T00:00:00", "TIME_GMT": "17:00", "SETTLEMENT_DATE": "2023-12-22T00:00:00", "SETTLEMENT_PERIOD": 34, "EMBEDDED_WIND_FORECAST": 4286, "EMBEDDED_WIND_CAPACITY": 6488, "EMBEDDED_SOLAR_FORECAST": 0, "EMBEDDED_SOLAR_CAPACITY": 15905}, {"_id": 5, "DATE_GMT": "2023-12-22T00:00:00", "TIME_GMT": "17:30", "SETTLEMENT_DATE": "2023-12-22T00:00:00", "SETTLEMENT_PERIOD": 35, "EMBEDDED_WIND_FORECAST": 4186, "EMBEDDED_WIND_CAPACITY": 6488, "EMBEDDED_SOLAR_FORECAST": 0, "EMBEDDED_SOLAR_CAPACITY": 15905}, {"_id": 6, "DATE_GMT": "2023-12-22T00:00:00", "TIME_GMT": "18:00", "SETTLEMENT_DATE": "2023-12-22T00:00:00", "SETTLEMENT_PERIOD": 36, "EMBEDDED_WIND_FORECAST": 4085, "EMBEDDED_WIND_CAPACITY": 6488, "EMBEDDED_SOLAR_FORECAST": 0, "EMBEDDED_SOLAR_CAPACITY": 15905}, {"_id": 7, "DATE_GMT": "2023-12-22T00:00:00", "TIME_GMT": "18:30", "SETTLEMENT_DATE": "2023-12-22T00:00:00", "SETTLEMENT_PERIOD": 37, "EMBEDDED_WIND_FORECAST": 3985, "EMBEDDED_WIND_CAPACITY": 6488, "EMBEDDED_SOLAR_FORECAST": 0, "EMBEDDED_SOLAR_CAPACITY": 15905}, {"_id": 8, "DATE_GMT": "2023-12-22T00:00:00", "TIME_GMT": "19:00", "SETTLEMENT_DATE": "2023-12-22T00:00:00", "SETTLEMENT_PERIOD": 38, "EMBEDDED_WIND_FORECAST": 3885, "EMBEDDED_WIND_CAPACITY": 6488, "EMBEDDED_SOLAR_FORECAST": 0, "EMBEDDED_SOLAR_CAPACITY": 15905}, {"_id": 9, "DATE_GMT": "2023-12-22T00:00:00", "TIME_GMT": "19:30", "SETTLEMENT_DATE": "2023-12-22T00:00:00", "SETTLEMENT_PERIOD": 39, "EMBEDDED_WIND_FORECAST": 3809, "EMBEDDED_WIND_CAPACITY": 6488, "EMBEDDED_SOLAR_FORECAST": 0, "EMBEDDED_SOLAR_CAPACITY": 15905}, {"_id": 10, "DATE_GMT": "2023-12-22T00:00:00", "TIME_GMT": "20:00", "SETTLEMENT_DATE": "2023-12-22T00:00:00", "SETTLEMENT_PERIOD": 40, "EMBEDDED_WIND_FORECAST": 3733, "EMBEDDED_WIND_CAPACITY": 6488, "EMBEDDED_SOLAR_FORECAST": 0, "EMBEDDED_SOLAR_CAPACITY": 15905}, {"_id": 11, "DATE_GMT": "2023-12-22T00:00:00", "TIME_GMT": "20:30", "SETTLEMENT_DATE": "2023-12-22T00:00:00", "SETTLEMENT_PERIOD": 41, "EMBEDDED_WIND_FORECAST": 3687, "EMBEDDED_WIND_CAPACITY": 6488, "EMBEDDED_SOLAR_FORECAST": 0, "EMBEDDED_SOLAR_CAPACITY": 15905}, {"_id": 12, "DATE_GMT": "2023-12-22T00:00:00", "TIME_GMT": "21:00", "SETTLEMENT_DATE": "2023-12-22T00:00:00", "SETTLEMENT_PERIOD": 42, "EMBEDDED_WIND_FORECAST": 3641, "EMBEDDED_WIND_CAPACITY": 6488, "EMBEDDED_SOLAR_FORECAST": 0, "EMBEDDED_SOLAR_CAPACITY": 15905}, {"_id": 13, "DATE_GMT": "2023-12-22T00:00:00", "TIME_GMT": "21:30", "SETTLEMENT_DATE": "2023-12-22T00:00:00", "SETTLEMENT_PERIOD": 43, "EMBEDDED_WIND_FORECAST": 3629, "EMBEDDED_WIND_CAPACITY": 6488, "EMBEDDED_SOLAR_FORECAST": 0, "EMBEDDED_SOLAR_CAPACITY": 15905}, {"_id": 14, "DATE_GMT": "2023-12-22T00:00:00", "TIME_GMT": "22:00", "SETTLEMENT_DATE": "2023-12-22T00:00:00", "SETTLEMENT_PERIOD": 44, "EMBEDDED_WIND_FORECAST": 3616, "EMBEDDED_WIND_CAPACITY": 6488, "EMBEDDED_SOLAR_FORECAST": 0, "EMBEDDED_SOLAR_CAPACITY": 15905}, {"_id": 15, "DATE_GMT": "2023-12-22T00:00:00", "TIME_GMT": "22:30", "SETTLEMENT_DATE": "2023-12-22T00:00:00", "SETTLEMENT_PERIOD": 45, "EMBEDDED_WIND_FORECAST": 3647, "EMBEDDED_WIND_CAPACITY": 6488, "EMBEDDED_SOLAR_FORECAST": 0, "EMBEDDED_SOLAR_CAPACITY": 15905}, {"_id": 16, "DATE_GMT": "2023-12-22T00:00:00", "TIME_GMT": "23:00", "SETTLEMENT_DATE": "2023-12-22T00:00:00", "SETTLEMENT_PERIOD": 46, "EMBEDDED_WIND_FORECAST": 3677, "EMBEDDED_WIND_CAPACITY": 6488, "EMBEDDED_SOLAR_FORECAST": 0, "EMBEDDED_SOLAR_CAPACITY": 15905}, {"_id": 17, "DATE_GMT": "2023-12-22T00:00:00", "TIME_GMT": "23:30", "SETTLEMENT_DATE": "2023-12-22T00:00:00", "SETTLEMENT_PERIOD": 47, "EMBEDDED_WIND_FORECAST": 3724, "EMBEDDED_WIND_CAPACITY": 6488, "EMBEDDED_SOLAR_FORECAST": 0, "EMBEDDED_SOLAR_CAPACITY": 15905}, {"_id": 18, "DATE_GMT": "2023-12-23T00:00:00", "TIME_GMT": "00:00", "SETTLEMENT_DATE": "2023-12-22T00:00:00", "SETTLEMENT_PERIOD": 48, "EMBEDDED_WIND_FORECAST": 3771, "EMBEDDED_WIND_CAPACITY": 6488, "EMBEDDED_SOLAR_FORECAST": 0, "EMBEDDED_SOLAR_CAPACITY": 15905}, {"_id": 19, "DATE_GMT": "2023-12-23T00:00:00", "TIME_GMT": "00:30", "SETTLEMENT_DATE": "2023-12-23T00:00:00", "SETTLEMENT_PERIOD": 1, "EMBEDDED_WIND_FORECAST": 3841, "EMBEDDED_WIND_CAPACITY": 6488, "EMBEDDED_SOLAR_FORECAST": 0, "EMBEDDED_SOLAR_CAPACITY": 15907}, {"_id": 20, "DATE_GMT": "2023-12-23T00:00:00", "TIME_GMT": "01:00", "SETTLEMENT_DATE": "2023-12-23T00:00:00", "SETTLEMENT_PERIOD": 2, "EMBEDDED_WIND_FORECAST": 3910, "EMBEDDED_WIND_CAPACITY": 6488, "EMBEDDED_SOLAR_FORECAST": 0, "EMBEDDED_SOLAR_CAPACITY": 15907}, {"_id": 21, "DATE_GMT": "2023-12-23T00:00:00", "TIME_GMT": "01:30", "SETTLEMENT_DATE": "2023-12-23T00:00:00", "SETTLEMENT_PERIOD": 3, "EMBEDDED_WIND_FORECAST": 3965, "EMBEDDED_WIND_CAPACITY": 6488, "EMBEDDED_SOLAR_FORECAST": 0, "EMBEDDED_SOLAR_CAPACITY": 15907}, {"_id": 22, "DATE_GMT": "2023-12-23T00:00:00", "TIME_GMT": "02:00", "SETTLEMENT_DATE": "2023-12-23T00:00:00", "SETTLEMENT_PERIOD": 4, "EMBEDDED_WIND_FORECAST": 4020, "EMBEDDED_WIND_CAPACITY": 6488, "EMBEDDED_SOLAR_FORECAST": 0, "EMBEDDED_SOLAR_CAPACITY": 15907}, {"_id": 23, "DATE_GMT": "2023-12-23T00:00:00", "TIME_GMT": "02:30", "SETTLEMENT_DATE": "2023-12-23T00:00:00", "SETTLEMENT_PERIOD": 5, "EMBEDDED_WIND_FORECAST": 4051, "EMBEDDED_WIND_CAPACITY": 6488, "EMBEDDED_SOLAR_FORECAST": 0, "EMBEDDED_SOLAR_CAPACITY": 15907}, {"_id": 24, "DATE_GMT": "2023-12-23T00:00:00", "TIME_GMT": "03:00", "SETTLEMENT_DATE": "2023-12-23T00:00:00", "SETTLEMENT_PERIOD": 6, "EMBEDDED_WIND_FORECAST": 4082, "EMBEDDED_WIND_CAPACITY": 6488, "EMBEDDED_SOLAR_FORECAST": 0, "EMBEDDED_SOLAR_CAPACITY": 15907}, {"_id": 25, "DATE_GMT": "2023-12-23T00:00:00", "TIME_GMT": "03:30", "SETTLEMENT_DATE": "2023-12-23T00:00:00", "SETTLEMENT_PERIOD": 7, "EMBEDDED_WIND_FORECAST": 4096, "EMBEDDED_WIND_CAPACITY": 6488, "EMBEDDED_SOLAR_FORECAST": 0, "EMBEDDED_SOLAR_CAPACITY": 15907}, {"_id": 26, "DATE_GMT": "2023-12-23T00:00:00", "TIME_GMT": "04:00", "SETTLEMENT_DATE": "2023-12-23T00:00:00", "SETTLEMENT_PERIOD": 8, "EMBEDDED_WIND_FORECAST": 4109, "EMBEDDED_WIND_CAPACITY": 6488, "EMBEDDED_SOLAR_FORECAST": 0, "EMBEDDED_SOLAR_CAPACITY": 15907}, {"_id": 27, "DATE_GMT": "2023-12-23T00:00:00", "TIME_GMT": "04:30", "SETTLEMENT_DATE": "2023-12-23T00:00:00", "SETTLEMENT_PERIOD": 9, "EMBEDDED_WIND_FORECAST": 4113, "EMBEDDED_WIND_CAPACITY": 6488, "EMBEDDED_SOLAR_FORECAST": 0, "EMBEDDED_SOLAR_CAPACITY": 15907}, {"_id": 28, "DATE_GMT": "2023-12-23T00:00:00", "TIME_GMT": "05:00", "SETTLEMENT_DATE": "2023-12-23T00:00:00", "SETTLEMENT_PERIOD": 10, "EMBEDDED_WIND_FORECAST": 4117, "EMBEDDED_WIND_CAPACITY": 6488, "EMBEDDED_SOLAR_FORECAST": 0, "EMBEDDED_SOLAR_CAPACITY": 15907}, {"_id": 29, "DATE_GMT": "2023-12-23T00:00:00", "TIME_GMT": "05:30", "SETTLEMENT_DATE": "2023-12-23T00:00:00", "SETTLEMENT_PERIOD": 11, "EMBEDDED_WIND_FORECAST": 4109, "EMBEDDED_WIND_CAPACITY": 6488, "EMBEDDED_SOLAR_FORECAST": 0, "EMBEDDED_SOLAR_CAPACITY": 15907}, {"_id": 30, "DATE_GMT": "2023-12-23T00:00:00", "TIME_GMT": "06:00", "SETTLEMENT_DATE": "2023-12-23T00:00:00", "SETTLEMENT_PERIOD": 12, "EMBEDDED_WIND_FORECAST": 4101, "EMBEDDED_WIND_CAPACITY": 6488, "EMBEDDED_SOLAR_FORECAST": 0, "EMBEDDED_SOLAR_CAPACITY": 15907}, {"_id": 31, "DATE_GMT": "2023-12-23T00:00:00", "TIME_GMT": "06:30", "SETTLEMENT_DATE": "2023-12-23T00:00:00", "SETTLEMENT_PERIOD": 13, "EMBEDDED_WIND_FORECAST": 4084, "EMBEDDED_WIND_CAPACITY": 6488, "EMBEDDED_SOLAR_FORECAST": 0, "EMBEDDED_SOLAR_CAPACITY": 15907}, {"_id": 32, "DATE_GMT": "2023-12-23T00:00:00", "TIME_GMT": "07:00", "SETTLEMENT_DATE": "2023-12-23T00:00:00", "SETTLEMENT_PERIOD": 14, "EMBEDDED_WIND_FORECAST": 4066, "EMBEDDED_WIND_CAPACITY": 6488, "EMBEDDED_SOLAR_FORECAST": 0, "EMBEDDED_SOLAR_CAPACITY": 15907}, {"_id": 33, "DATE_GMT": "2023-12-23T00:00:00", "TIME_GMT": "07:30", "SETTLEMENT_DATE": "2023-12-23T00:00:00", "SETTLEMENT_PERIOD": 15, "EMBEDDED_WIND_FORECAST": 4048, "EMBEDDED_WIND_CAPACITY": 6488, "EMBEDDED_SOLAR_FORECAST": 0, "EMBEDDED_SOLAR_CAPACITY": 15907}, {"_id": 34, "DATE_GMT": "2023-12-23T00:00:00", "TIME_GMT": "08:00", "SETTLEMENT_DATE": "2023-12-23T00:00:00", "SETTLEMENT_PERIOD": 16, "EMBEDDED_WIND_FORECAST": 4029, "EMBEDDED_WIND_CAPACITY": 6488, "EMBEDDED_SOLAR_FORECAST": 0, "EMBEDDED_SOLAR_CAPACITY": 15907}, {"_id": 35, "DATE_GMT": "2023-12-23T00:00:00", "TIME_GMT": "08:30", "SETTLEMENT_DATE": "2023-12-23T00:00:00", "SETTLEMENT_PERIOD": 17, "EMBEDDED_WIND_FORECAST": 4048, "EMBEDDED_WIND_CAPACITY": 6488, "EMBEDDED_SOLAR_FORECAST": 38, "EMBEDDED_SOLAR_CAPACITY": 15907}, {"_id": 36, "DATE_GMT": "2023-12-23T00:00:00", "TIME_GMT": "09:00", "SETTLEMENT_DATE": "2023-12-23T00:00:00", "SETTLEMENT_PERIOD": 18, "EMBEDDED_WIND_FORECAST": 4067, "EMBEDDED_WIND_CAPACITY": 6488, "EMBEDDED_SOLAR_FORECAST": 179, "EMBEDDED_SOLAR_CAPACITY": 15907}, {"_id": 37, "DATE_GMT": "2023-12-23T00:00:00", "TIME_GMT": "09:30", "SETTLEMENT_DATE": "2023-12-23T00:00:00", "SETTLEMENT_PERIOD": 19, "EMBEDDED_WIND_FORECAST": 4120, "EMBEDDED_WIND_CAPACITY": 6488, "EMBEDDED_SOLAR_FORECAST": 477, "EMBEDDED_SOLAR_CAPACITY": 15907}, {"_id": 38, "DATE_GMT": "2023-12-23T00:00:00", "TIME_GMT": "10:00", "SETTLEMENT_DATE": "2023-12-23T00:00:00", "SETTLEMENT_PERIOD": 20, "EMBEDDED_WIND_FORECAST": 4173, "EMBEDDED_WIND_CAPACITY": 6488, "EMBEDDED_SOLAR_FORECAST": 832, "EMBEDDED_SOLAR_CAPACITY": 15907}, {"_id": 39, "DATE_GMT": "2023-12-23T00:00:00", "TIME_GMT": "10:30", "SETTLEMENT_DATE": "2023-12-23T00:00:00", "SETTLEMENT_PERIOD": 21, "EMBEDDED_WIND_FORECAST": 4224, "EMBEDDED_WIND_CAPACITY": 6488, "EMBEDDED_SOLAR_FORECAST": 1134, "EMBEDDED_SOLAR_CAPACITY": 15907}, {"_id": 40, "DATE_GMT": "2023-12-23T00:00:00", "TIME_GMT": "11:00", "SETTLEMENT_DATE": "2023-12-23T00:00:00", "SETTLEMENT_PERIOD": 22, "EMBEDDED_WIND_FORECAST": 4274, "EMBEDDED_WIND_CAPACITY": 6488, "EMBEDDED_SOLAR_FORECAST": 1382, "EMBEDDED_SOLAR_CAPACITY": 15907}, {"_id": 41, "DATE_GMT": "2023-12-23T00:00:00", "TIME_GMT": "11:30", "SETTLEMENT_DATE": "2023-12-23T00:00:00", "SETTLEMENT_PERIOD": 23, "EMBEDDED_WIND_FORECAST": 4344, "EMBEDDED_WIND_CAPACITY": 6488, "EMBEDDED_SOLAR_FORECAST": 1586, "EMBEDDED_SOLAR_CAPACITY": 15907}, {"_id": 42, "DATE_GMT": "2023-12-23T00:00:00", "TIME_GMT": "12:00", "SETTLEMENT_DATE": "2023-12-23T00:00:00", "SETTLEMENT_PERIOD": 24, "EMBEDDED_WIND_FORECAST": 4413, "EMBEDDED_WIND_CAPACITY": 6488, "EMBEDDED_SOLAR_FORECAST": 1694, "EMBEDDED_SOLAR_CAPACITY": 15907}, {"_id": 43, "DATE_GMT": "2023-12-23T00:00:00", "TIME_GMT": "12:30", "SETTLEMENT_DATE": "2023-12-23T00:00:00", "SETTLEMENT_PERIOD": 25, "EMBEDDED_WIND_FORECAST": 4434, "EMBEDDED_WIND_CAPACITY": 6488, "EMBEDDED_SOLAR_FORECAST": 1657, "EMBEDDED_SOLAR_CAPACITY": 15907}, {"_id": 44, "DATE_GMT": "2023-12-23T00:00:00", "TIME_GMT": "13:00", "SETTLEMENT_DATE": "2023-12-23T00:00:00", "SETTLEMENT_PERIOD": 26, "EMBEDDED_WIND_FORECAST": 4455, "EMBEDDED_WIND_CAPACITY": 6488, "EMBEDDED_SOLAR_FORECAST": 1515, "EMBEDDED_SOLAR_CAPACITY": 15907}, {"_id": 45, "DATE_GMT": "2023-12-23T00:00:00", "TIME_GMT": "13:30", "SETTLEMENT_DATE": "2023-12-23T00:00:00", "SETTLEMENT_PERIOD": 27, "EMBEDDED_WIND_FORECAST": 4487, "EMBEDDED_WIND_CAPACITY": 6488, "EMBEDDED_SOLAR_FORECAST": 1316, "EMBEDDED_SOLAR_CAPACITY": 15907}, {"_id": 46, "DATE_GMT": "2023-12-23T00:00:00", "TIME_GMT": "14:00", "SETTLEMENT_DATE": "2023-12-23T00:00:00", "SETTLEMENT_PERIOD": 28, "EMBEDDED_WIND_FORECAST": 4519, "EMBEDDED_WIND_CAPACITY": 6488, "EMBEDDED_SOLAR_FORECAST": 1057, "EMBEDDED_SOLAR_CAPACITY": 15907}, {"_id": 47, "DATE_GMT": "2023-12-23T00:00:00", "TIME_GMT": "14:30", "SETTLEMENT_DATE": "2023-12-23T00:00:00", "SETTLEMENT_PERIOD": 29, "EMBEDDED_WIND_FORECAST": 4517, "EMBEDDED_WIND_CAPACITY": 6488, "EMBEDDED_SOLAR_FORECAST": 738, "EMBEDDED_SOLAR_CAPACITY": 15907}, {"_id": 48, "DATE_GMT": "2023-12-23T00:00:00", "TIME_GMT": "15:00", "SETTLEMENT_DATE": "2023-12-23T00:00:00", "SETTLEMENT_PERIOD": 30, "EMBEDDED_WIND_FORECAST": 4514, "EMBEDDED_WIND_CAPACITY": 6488, "EMBEDDED_SOLAR_FORECAST": 421, "EMBEDDED_SOLAR_CAPACITY": 15907}, {"_id": 49, "DATE_GMT": "2023-12-23T00:00:00", "TIME_GMT": "15:30", "SETTLEMENT_DATE": "2023-12-23T00:00:00", "SETTLEMENT_PERIOD": 31, "EMBEDDED_WIND_FORECAST": 4472, "EMBEDDED_WIND_CAPACITY": 6488, "EMBEDDED_SOLAR_FORECAST": 176, "EMBEDDED_SOLAR_CAPACITY": 15907}, {"_id": 50, "DATE_GMT": "2023-12-23T00:00:00", "TIME_GMT": "16:00", "SETTLEMENT_DATE": "2023-12-23T00:00:00", "SETTLEMENT_PERIOD": 32, "EMBEDDED_WIND_FORECAST": 4429, "EMBEDDED_WIND_CAPACITY": 6488, "EMBEDDED_SOLAR_FORECAST": 31, "EMBEDDED_SOLAR_CAPACITY": 15907}, {"_id": 51, "DATE_GMT": "2023-12-23T00:00:00", "TIME_GMT": "16:30", "SETTLEMENT_DATE": "2023-12-23T00:00:00", "SETTLEMENT_PERIOD": 33, "EMBEDDED_WIND_FORECAST": 4417, "EMBEDDED_WIND_CAPACITY": 6488, "EMBEDDED_SOLAR_FORECAST": 0, "EMBEDDED_SOLAR_CAPACITY": 15907}, {"_id": 52, "DATE_GMT": "2023-12-23T00:00:00", "TIME_GMT": "17:00", "SETTLEMENT_DATE": "2023-12-23T00:00:00", "SETTLEMENT_PERIOD": 34, "EMBEDDED_WIND_FORECAST": 4404, "EMBEDDED_WIND_CAPACITY": 6488, "EMBEDDED_SOLAR_FORECAST": 0, "EMBEDDED_SOLAR_CAPACITY": 15907}, {"_id": 53, "DATE_GMT": "2023-12-23T00:00:00", "TIME_GMT": "17:30", "SETTLEMENT_DATE": "2023-12-23T00:00:00", "SETTLEMENT_PERIOD": 35, "EMBEDDED_WIND_FORECAST": 4427, "EMBEDDED_WIND_CAPACITY": 6488, "EMBEDDED_SOLAR_FORECAST": 0, "EMBEDDED_SOLAR_CAPACITY": 15907}, {"_id": 54, "DATE_GMT": "2023-12-23T00:00:00", "TIME_GMT": "18:00", "SETTLEMENT_DATE": "2023-12-23T00:00:00", "SETTLEMENT_PERIOD": 36, "EMBEDDED_WIND_FORECAST": 4450, "EMBEDDED_WIND_CAPACITY": 6488, "EMBEDDED_SOLAR_FORECAST": 0, "EMBEDDED_SOLAR_CAPACITY": 15907}, {"_id": 55, "DATE_GMT": "2023-12-23T00:00:00", "TIME_GMT": "18:30", "SETTLEMENT_DATE": "2023-12-23T00:00:00", "SETTLEMENT_PERIOD": 37, "EMBEDDED_WIND_FORECAST": 4440, "EMBEDDED_WIND_CAPACITY": 6488, "EMBEDDED_SOLAR_FORECAST": 0, "EMBEDDED_SOLAR_CAPACITY": 15907}, {"_id": 56, "DATE_GMT": "2023-12-23T00:00:00", "TIME_GMT": "19:00", "SETTLEMENT_DATE": "2023-12-23T00:00:00", "SETTLEMENT_PERIOD": 38, "EMBEDDED_WIND_FORECAST": 4430, "EMBEDDED_WIND_CAPACITY": 6488, "EMBEDDED_SOLAR_FORECAST": 0, "EMBEDDED_SOLAR_CAPACITY": 15907}, {"_id": 57, "DATE_GMT": "2023-12-23T00:00:00", "TIME_GMT": "19:30", "SETTLEMENT_DATE": "2023-12-23T00:00:00", "SETTLEMENT_PERIOD": 39, "EMBEDDED_WIND_FORECAST": 4468, "EMBEDDED_WIND_CAPACITY": 6488, "EMBEDDED_SOLAR_FORECAST": 0, "EMBEDDED_SOLAR_CAPACITY": 15907}, {"_id": 58, "DATE_GMT": "2023-12-23T00:00:00", "TIME_GMT": "20:00", "SETTLEMENT_DATE": "2023-12-23T00:00:00", "SETTLEMENT_PERIOD": 40, "EMBEDDED_WIND_FORECAST": 4505, "EMBEDDED_WIND_CAPACITY": 6488, "EMBEDDED_SOLAR_FORECAST": 0, "EMBEDDED_SOLAR_CAPACITY": 15907}, {"_id": 59, "DATE_GMT": "2023-12-23T00:00:00", "TIME_GMT": "20:30", "SETTLEMENT_DATE": "2023-12-23T00:00:00", "SETTLEMENT_PERIOD": 41, "EMBEDDED_WIND_FORECAST": 4568, "EMBEDDED_WIND_CAPACITY": 6488, "EMBEDDED_SOLAR_FORECAST": 0, "EMBEDDED_SOLAR_CAPACITY": 15907}, {"_id": 60, "DATE_GMT": "2023-12-23T00:00:00", "TIME_GMT": "21:00", "SETTLEMENT_DATE": "2023-12-23T00:00:00", "SETTLEMENT_PERIOD": 42, "EMBEDDED_WIND_FORECAST": 4630, "EMBEDDED_WIND_CAPACITY": 6488, "EMBEDDED_SOLAR_FORECAST": 0, "EMBEDDED_SOLAR_CAPACITY": 15907}, {"_id": 61, "DATE_GMT": "2023-12-23T00:00:00", "TIME_GMT": "21:30", "SETTLEMENT_DATE": "2023-12-23T00:00:00", "SETTLEMENT_PERIOD": 43, "EMBEDDED_WIND_FORECAST": 4660, "EMBEDDED_WIND_CAPACITY": 6488, "EMBEDDED_SOLAR_FORECAST": 0, "EMBEDDED_SOLAR_CAPACITY": 15907}, {"_id": 62, "DATE_GMT": "2023-12-23T00:00:00", "TIME_GMT": "22:00", "SETTLEMENT_DATE": "2023-12-23T00:00:00", "SETTLEMENT_PERIOD": 44, "EMBEDDED_WIND_FORECAST": 4689, "EMBEDDED_WIND_CAPACITY": 6488, "EMBEDDED_SOLAR_FORECAST": 0, "EMBEDDED_SOLAR_CAPACITY": 15907}, {"_id": 63, "DATE_GMT": "2023-12-23T00:00:00", "TIME_GMT": "22:30", "SETTLEMENT_DATE": "2023-12-23T00:00:00", "SETTLEMENT_PERIOD": 45, "EMBEDDED_WIND_FORECAST": 4695, "EMBEDDED_WIND_CAPACITY": 6488, "EMBEDDED_SOLAR_FORECAST": 0, "EMBEDDED_SOLAR_CAPACITY": 15907}, {"_id": 64, "DATE_GMT": "2023-12-23T00:00:00", "TIME_GMT": "23:00", "SETTLEMENT_DATE": "2023-12-23T00:00:00", "SETTLEMENT_PERIOD": 46, "EMBEDDED_WIND_FORECAST": 4700, "EMBEDDED_WIND_CAPACITY": 6488, "EMBEDDED_SOLAR_FORECAST": 0, "EMBEDDED_SOLAR_CAPACITY": 15907}, {"_id": 65, "DATE_GMT": "2023-12-23T00:00:00", "TIME_GMT": "23:30", "SETTLEMENT_DATE": "2023-12-23T00:00:00", "SETTLEMENT_PERIOD": 47, "EMBEDDED_WIND_FORECAST": 4740, "EMBEDDED_WIND_CAPACITY": 6488, "EMBEDDED_SOLAR_FORECAST": 0, "EMBEDDED_SOLAR_CAPACITY": 15907}, {"_id": 66, "DATE_GMT": "2023-12-24T00:00:00", "TIME_GMT": "00:00", "SETTLEMENT_DATE": "2023-12-23T00:00:00", "SETTLEMENT_PERIOD": 48, "EMBEDDED_WIND_FORECAST": 4780, "EMBEDDED_WIND_CAPACITY": 6488, "EMBEDDED_SOLAR_FORECAST": 0, "EMBEDDED_SOLAR_CAPACITY": 15907}, {"_id": 67, "DATE_GMT": "2023-12-24T00:00:00", "TIME_GMT": "00:30", "SETTLEMENT_DATE": "2023-12-24T00:00:00", "SETTLEMENT_PERIOD": 1, "EMBEDDED_WIND_FORECAST": 4729, "EMBEDDED_WIND_CAPACITY": 6488, "EMBEDDED_SOLAR_FORECAST": 0, "EMBEDDED_SOLAR_CAPACITY": 15908}, {"_id": 68, "DATE_GMT": "2023-12-24T00:00:00", "TIME_GMT": "01:00", "SETTLEMENT_DATE": "2023-12-24T00:00:00", "SETTLEMENT_PERIOD": 2, "EMBEDDED_WIND_FORECAST": 4677, "EMBEDDED_WIND_CAPACITY": 6488, "EMBEDDED_SOLAR_FORECAST": 0, "EMBEDDED_SOLAR_CAPACITY": 15908}, {"_id": 69, "DATE_GMT": "2023-12-24T00:00:00", "TIME_GMT": "01:30", "SETTLEMENT_DATE": "2023-12-24T00:00:00", "SETTLEMENT_PERIOD": 3, "EMBEDDED_WIND_FORECAST": 4655, "EMBEDDED_WIND_CAPACITY": 6488, "EMBEDDED_SOLAR_FORECAST": 0, "EMBEDDED_SOLAR_CAPACITY": 15908}, {"_id": 70, "DATE_GMT": "2023-12-24T00:00:00", "TIME_GMT": "02:00", "SETTLEMENT_DATE": "2023-12-24T00:00:00", "SETTLEMENT_PERIOD": 4, "EMBEDDED_WIND_FORECAST": 4633, "EMBEDDED_WIND_CAPACITY": 6488, "EMBEDDED_SOLAR_FORECAST": 0, "EMBEDDED_SOLAR_CAPACITY": 15908}, {"_id": 71, "DATE_GMT": "2023-12-24T00:00:00", "TIME_GMT": "02:30", "SETTLEMENT_DATE": "2023-12-24T00:00:00", "SETTLEMENT_PERIOD": 5, "EMBEDDED_WIND_FORECAST": 4637, "EMBEDDED_WIND_CAPACITY": 6488, "EMBEDDED_SOLAR_FORECAST": 0, "EMBEDDED_SOLAR_CAPACITY": 15908}, {"_id": 72, "DATE_GMT": "2023-12-24T00:00:00", "TIME_GMT": "03:00", "SETTLEMENT_DATE": "2023-12-24T00:00:00", "SETTLEMENT_PERIOD": 6, "EMBEDDED_WIND_FORECAST": 4640, "EMBEDDED_WIND_CAPACITY": 6488, "EMBEDDED_SOLAR_FORECAST": 0, "EMBEDDED_SOLAR_CAPACITY": 15908}, {"_id": 73, "DATE_GMT": "2023-12-24T00:00:00", "TIME_GMT": "03:30", "SETTLEMENT_DATE": "2023-12-24T00:00:00", "SETTLEMENT_PERIOD": 7, "EMBEDDED_WIND_FORECAST": 4604, "EMBEDDED_WIND_CAPACITY": 6488, "EMBEDDED_SOLAR_FORECAST": 0, "EMBEDDED_SOLAR_CAPACITY": 15908}, {"_id": 74, "DATE_GMT": "2023-12-24T00:00:00", "TIME_GMT": "04:00", "SETTLEMENT_DATE": "2023-12-24T00:00:00", "SETTLEMENT_PERIOD": 8, "EMBEDDED_WIND_FORECAST": 4567, "EMBEDDED_WIND_CAPACITY": 6488, "EMBEDDED_SOLAR_FORECAST": 0, "EMBEDDED_SOLAR_CAPACITY": 15908}, {"_id": 75, "DATE_GMT": "2023-12-24T00:00:00", "TIME_GMT": "04:30", "SETTLEMENT_DATE": "2023-12-24T00:00:00", "SETTLEMENT_PERIOD": 9, "EMBEDDED_WIND_FORECAST": 4595, "EMBEDDED_WIND_CAPACITY": 6488, "EMBEDDED_SOLAR_FORECAST": 0, "EMBEDDED_SOLAR_CAPACITY": 15908}, {"_id": 76, "DATE_GMT": "2023-12-24T00:00:00", "TIME_GMT": "05:00", "SETTLEMENT_DATE": "2023-12-24T00:00:00", "SETTLEMENT_PERIOD": 10, "EMBEDDED_WIND_FORECAST": 4622, "EMBEDDED_WIND_CAPACITY": 6488, "EMBEDDED_SOLAR_FORECAST": 0, "EMBEDDED_SOLAR_CAPACITY": 15908}, {"_id": 77, "DATE_GMT": "2023-12-24T00:00:00", "TIME_GMT": "05:30", "SETTLEMENT_DATE": "2023-12-24T00:00:00", "SETTLEMENT_PERIOD": 11, "EMBEDDED_WIND_FORECAST": 4634, "EMBEDDED_WIND_CAPACITY": 6488, "EMBEDDED_SOLAR_FORECAST": 0, "EMBEDDED_SOLAR_CAPACITY": 15908}, {"_id": 78, "DATE_GMT": "2023-12-24T00:00:00", "TIME_GMT": "06:00", "SETTLEMENT_DATE": "2023-12-24T00:00:00", "SETTLEMENT_PERIOD": 12, "EMBEDDED_WIND_FORECAST": 4646, "EMBEDDED_WIND_CAPACITY": 6488, "EMBEDDED_SOLAR_FORECAST": 0, "EMBEDDED_SOLAR_CAPACITY": 15908}, {"_id": 79, "DATE_GMT": "2023-12-24T00:00:00", "TIME_GMT": "06:30", "SETTLEMENT_DATE": "2023-12-24T00:00:00", "SETTLEMENT_PERIOD": 13, "EMBEDDED_WIND_FORECAST": 4697, "EMBEDDED_WIND_CAPACITY": 6488, "EMBEDDED_SOLAR_FORECAST": 0, "EMBEDDED_SOLAR_CAPACITY": 15908}, {"_id": 80, "DATE_GMT": "2023-12-24T00:00:00", "TIME_GMT": "07:00", "SETTLEMENT_DATE": "2023-12-24T00:00:00", "SETTLEMENT_PERIOD": 14, "EMBEDDED_WIND_FORECAST": 4748, "EMBEDDED_WIND_CAPACITY": 6488, "EMBEDDED_SOLAR_FORECAST": 0, "EMBEDDED_SOLAR_CAPACITY": 15908}, {"_id": 81, "DATE_GMT": "2023-12-24T00:00:00", "TIME_GMT": "07:30", "SETTLEMENT_DATE": "2023-12-24T00:00:00", "SETTLEMENT_PERIOD": 15, "EMBEDDED_WIND_FORECAST": 4724, "EMBEDDED_WIND_CAPACITY": 6488, "EMBEDDED_SOLAR_FORECAST": 0, "EMBEDDED_SOLAR_CAPACITY": 15908}, {"_id": 82, "DATE_GMT": "2023-12-24T00:00:00", "TIME_GMT": "08:00", "SETTLEMENT_DATE": "2023-12-24T00:00:00", "SETTLEMENT_PERIOD": 16, "EMBEDDED_WIND_FORECAST": 4699, "EMBEDDED_WIND_CAPACITY": 6488, "EMBEDDED_SOLAR_FORECAST": 0, "EMBEDDED_SOLAR_CAPACITY": 15908}, {"_id": 83, "DATE_GMT": "2023-12-24T00:00:00", "TIME_GMT": "08:30", "SETTLEMENT_DATE": "2023-12-24T00:00:00", "SETTLEMENT_PERIOD": 17, "EMBEDDED_WIND_FORECAST": 4732, "EMBEDDED_WIND_CAPACITY": 6488, "EMBEDDED_SOLAR_FORECAST": 0, "EMBEDDED_SOLAR_CAPACITY": 15908}, {"_id": 84, "DATE_GMT": "2023-12-24T00:00:00", "TIME_GMT": "09:00", "SETTLEMENT_DATE": "2023-12-24T00:00:00", "SETTLEMENT_PERIOD": 18, "EMBEDDED_WIND_FORECAST": 4765, "EMBEDDED_WIND_CAPACITY": 6488, "EMBEDDED_SOLAR_FORECAST": 21, "EMBEDDED_SOLAR_CAPACITY": 15908}, {"_id": 85, "DATE_GMT": "2023-12-24T00:00:00", "TIME_GMT": "09:30", "SETTLEMENT_DATE": "2023-12-24T00:00:00", "SETTLEMENT_PERIOD": 19, "EMBEDDED_WIND_FORECAST": 4819, "EMBEDDED_WIND_CAPACITY": 6488, "EMBEDDED_SOLAR_FORECAST": 131, "EMBEDDED_SOLAR_CAPACITY": 15908}, {"_id": 86, "DATE_GMT": "2023-12-24T00:00:00", "TIME_GMT": "10:00", "SETTLEMENT_DATE": "2023-12-24T00:00:00", "SETTLEMENT_PERIOD": 20, "EMBEDDED_WIND_FORECAST": 4872, "EMBEDDED_WIND_CAPACITY": 6488, "EMBEDDED_SOLAR_FORECAST": 283, "EMBEDDED_SOLAR_CAPACITY": 15908}, {"_id": 87, "DATE_GMT": "2023-12-24T00:00:00", "TIME_GMT": "10:30", "SETTLEMENT_DATE": "2023-12-24T00:00:00", "SETTLEMENT_PERIOD": 21, "EMBEDDED_WIND_FORECAST": 4918, "EMBEDDED_WIND_CAPACITY": 6488, "EMBEDDED_SOLAR_FORECAST": 427, "EMBEDDED_SOLAR_CAPACITY": 15908}, {"_id": 88, "DATE_GMT": "2023-12-24T00:00:00", "TIME_GMT": "11:00", "SETTLEMENT_DATE": "2023-12-24T00:00:00", "SETTLEMENT_PERIOD": 22, "EMBEDDED_WIND_FORECAST": 4963, "EMBEDDED_WIND_CAPACITY": 6488, "EMBEDDED_SOLAR_FORECAST": 557, "EMBEDDED_SOLAR_CAPACITY": 15908}, {"_id": 89, "DATE_GMT": "2023-12-24T00:00:00", "TIME_GMT": "11:30", "SETTLEMENT_DATE": "2023-12-24T00:00:00", "SETTLEMENT_PERIOD": 23, "EMBEDDED_WIND_FORECAST": 5047, "EMBEDDED_WIND_CAPACITY": 6488, "EMBEDDED_SOLAR_FORECAST": 668, "EMBEDDED_SOLAR_CAPACITY": 15908}, {"_id": 90, "DATE_GMT": "2023-12-24T00:00:00", "TIME_GMT": "12:00", "SETTLEMENT_DATE": "2023-12-24T00:00:00", "SETTLEMENT_PERIOD": 24, "EMBEDDED_WIND_FORECAST": 5130, "EMBEDDED_WIND_CAPACITY": 6488, "EMBEDDED_SOLAR_FORECAST": 740, "EMBEDDED_SOLAR_CAPACITY": 15908}, {"_id": 91, "DATE_GMT": "2023-12-24T00:00:00", "TIME_GMT": "12:30", "SETTLEMENT_DATE": "2023-12-24T00:00:00", "SETTLEMENT_PERIOD": 25, "EMBEDDED_WIND_FORECAST": 5130, "EMBEDDED_WIND_CAPACITY": 6488, "EMBEDDED_SOLAR_FORECAST": 754, "EMBEDDED_SOLAR_CAPACITY": 15908}, {"_id": 92, "DATE_GMT": "2023-12-24T00:00:00", "TIME_GMT": "13:00", "SETTLEMENT_DATE": "2023-12-24T00:00:00", "SETTLEMENT_PERIOD": 26, "EMBEDDED_WIND_FORECAST": 5130, "EMBEDDED_WIND_CAPACITY": 6488, "EMBEDDED_SOLAR_FORECAST": 711, "EMBEDDED_SOLAR_CAPACITY": 15908}, {"_id": 93, "DATE_GMT": "2023-12-24T00:00:00", "TIME_GMT": "13:30", "SETTLEMENT_DATE": "2023-12-24T00:00:00", "SETTLEMENT_PERIOD": 27, "EMBEDDED_WIND_FORECAST": 5129, "EMBEDDED_WIND_CAPACITY": 6488, "EMBEDDED_SOLAR_FORECAST": 616, "EMBEDDED_SOLAR_CAPACITY": 15908}, {"_id": 94, "DATE_GMT": "2023-12-24T00:00:00", "TIME_GMT": "14:00", "SETTLEMENT_DATE": "2023-12-24T00:00:00", "SETTLEMENT_PERIOD": 28, "EMBEDDED_WIND_FORECAST": 5128, "EMBEDDED_WIND_CAPACITY": 6488, "EMBEDDED_SOLAR_FORECAST": 484, "EMBEDDED_SOLAR_CAPACITY": 15908}, {"_id": 95, "DATE_GMT": "2023-12-24T00:00:00", "TIME_GMT": "14:30", "SETTLEMENT_DATE": "2023-12-24T00:00:00", "SETTLEMENT_PERIOD": 29, "EMBEDDED_WIND_FORECAST": 5127, "EMBEDDED_WIND_CAPACITY": 6488, "EMBEDDED_SOLAR_FORECAST": 332, "EMBEDDED_SOLAR_CAPACITY": 15908}, {"_id": 96, "DATE_GMT": "2023-12-24T00:00:00", "TIME_GMT": "15:00", "SETTLEMENT_DATE": "2023-12-24T00:00:00", "SETTLEMENT_PERIOD": 30, "EMBEDDED_WIND_FORECAST": 5125, "EMBEDDED_WIND_CAPACITY": 6488, "EMBEDDED_SOLAR_FORECAST": 186, "EMBEDDED_SOLAR_CAPACITY": 15908}, {"_id": 97, "DATE_GMT": "2023-12-24T00:00:00", "TIME_GMT": "15:30", "SETTLEMENT_DATE": "2023-12-24T00:00:00", "SETTLEMENT_PERIOD": 31, "EMBEDDED_WIND_FORECAST": 5108, "EMBEDDED_WIND_CAPACITY": 6488, "EMBEDDED_SOLAR_FORECAST": 69, "EMBEDDED_SOLAR_CAPACITY": 15908}, {"_id": 98, "DATE_GMT": "2023-12-24T00:00:00", "TIME_GMT": "16:00", "SETTLEMENT_DATE": "2023-12-24T00:00:00", "SETTLEMENT_PERIOD": 32, "EMBEDDED_WIND_FORECAST": 5091, "EMBEDDED_WIND_CAPACITY": 6488, "EMBEDDED_SOLAR_FORECAST": 0, "EMBEDDED_SOLAR_CAPACITY": 15908}, {"_id": 99, "DATE_GMT": "2023-12-24T00:00:00", "TIME_GMT": "16:30", "SETTLEMENT_DATE": "2023-12-24T00:00:00", "SETTLEMENT_PERIOD": 33, "EMBEDDED_WIND_FORECAST": 5073, "EMBEDDED_WIND_CAPACITY": 6488, "EMBEDDED_SOLAR_FORECAST": 0, "EMBEDDED_SOLAR_CAPACITY": 15908}, {"_id": 100, "DATE_GMT": "2023-12-24T00:00:00", "TIME_GMT": "17:00", "SETTLEMENT_DATE": "2023-12-24T00:00:00", "SETTLEMENT_PERIOD": 34, "EMBEDDED_WIND_FORECAST": 5054, "EMBEDDED_WIND_CAPACITY": 6488, "EMBEDDED_SOLAR_FORECAST": 0, "EMBEDDED_SOLAR_CAPACITY": 15908}], "_links": {"start": "/api/3/action/datastore_search?resource_id=db6c038f-98af-4570-ab60-24d71ebd0ae5", "next": "/api/3/action/datastore_search?offset=100&resource_id=db6c038f-98af-4570-ab60-24d71ebd0ae5"}, "total": 642}}